﻿<?xml version="1.0" encoding="utf-8"?>
<svg version="1.1" xmlns:xlink="http://www.w3.org/1999/xlink" width="415px" height="473px" xmlns="http://www.w3.org/2000/svg">
  <g transform="matrix(1 0 0 1 0 -608 )">
    <path d="M 0 608  L 415 608  L 415 1081  L 0 1081  L 0 608  " fill-rule="nonzero" fill="#cccccc" stroke="none" />
    <path d="M 29 637  L 386 637  L 386 1052  L 29 1052  L 29 637  " fill-rule="nonzero" fill="#ffffff" stroke="none" />
    <path d="M 246.925 741.2  C 229.495 741.2  215.8 727.505  215.8 710.075  C 215.8 692.645  229.495 678.95  246.925 678.95  C 264.355 678.95  278.05 692.645  278.05 710.075  C 278.05 727.505  264.355 741.2  246.925 741.2  " fill-rule="nonzero" fill="#cccccc" stroke="none" />
    <path d="M 40 1042  L 40 825.3  L 124 726.8  L 241.6 805.6  L 308.8 785.9  L 376 805.6  L 376 1042  L 40 1042  " fill-rule="nonzero" fill="#169bd5" stroke="none" />
  </g>
</svg>