﻿<?xml version="1.0" encoding="utf-8"?>
<svg version="1.1" xmlns:xlink="http://www.w3.org/1999/xlink" width="458px" height="458px" xmlns="http://www.w3.org/2000/svg">
  <g transform="matrix(1 0 0 1 -42 -648 )">
    <path d="M 42 648  L 500 648  L 500 1106  L 42 1106  L 42 648  " fill-rule="nonzero" fill="#cccccc" stroke="none" />
    <path d="M 74 680  L 468 680  L 468 1074  L 74 1074  L 74 680  " fill-rule="nonzero" fill="#ffffff" stroke="none" />
    <path d="M 314.51 785.4  C 295.274 785.4  280.16 770.286  280.16 751.05  C 280.16 731.814  295.274 716.7  314.51 716.7  C 333.746 716.7  348.86 731.814  348.86 751.05  C 348.86 770.286  333.746 785.4  314.51 785.4  " fill-rule="nonzero" fill="#cccccc" stroke="none" />
    <path d="M 86 1063  L 86 858.95  L 178.75 766.2  L 308.6 840.4  L 382.8 821.85  L 457 840.4  L 457 1063  L 86 1063  " fill-rule="nonzero" fill="#169bd5" stroke="none" />
  </g>
</svg>