﻿<?xml version="1.0" encoding="utf-8"?>
<svg version="1.1" xmlns:xlink="http://www.w3.org/1999/xlink" width="232px" height="264px" xmlns="http://www.w3.org/2000/svg">
  <defs>
    <mask fill="white" id="clip4">
      <path d="M 215 1608  C 150.62 1608  99 1556.38  99 1492  L 99 1460  C 99 1395.62  150.62 1344  215 1344  L 215 1344  C 279.38 1344  331 1395.62  331 1460  L 331 1492  C 331 1556.38  279.38 1608  215 1608  " fill-rule="evenodd" />
    </mask>
  </defs>
  <g transform="matrix(1 0 0 1 -99 -1344 )">
    <path d="M 99 1344  L 331 1344  L 331 1608  L 99 1608  L 99 1344  " fill-rule="nonzero" fill="#cccccc" stroke="none" mask="url(#clip4)" />
    <path d="M 115 1360  L 315 1360  L 315 1592  L 115 1592  L 115 1360  " fill-rule="nonzero" fill="#ffffff" stroke="none" mask="url(#clip4)" />
    <path d="M 237.04 1418.4  C 227.296 1418.4  219.64 1410.744  219.64 1401  C 219.64 1391.256  227.296 1383.6  237.04 1383.6  C 246.784 1383.6  254.44 1391.256  254.44 1401  C 254.44 1410.744  246.784 1418.4  237.04 1418.4  " fill-rule="nonzero" fill="#cccccc" stroke="none" mask="url(#clip4)" />
    <path d="M 121 1586  L 121 1465  L 168 1410  L 233.8 1454  L 271.4 1443  L 309 1454  L 309 1586  L 121 1586  " fill-rule="nonzero" fill="#169bd5" stroke="none" mask="url(#clip4)" />
  </g>
</svg>