﻿<?xml version="1.0" encoding="utf-8"?>
<svg version="1.1" xmlns:xlink="http://www.w3.org/1999/xlink" width="512px" height="473px" xmlns="http://www.w3.org/2000/svg">
  <g transform="matrix(1 0 0 1 0 -608 )">
    <path d="M 0 608  L 512 608  L 512 1081  L 0 1081  L 0 608  " fill-rule="nonzero" fill="#cccccc" stroke="none" />
    <path d="M 33 641  L 479 641  L 479 1048  L 33 1048  L 33 641  " fill-rule="nonzero" fill="#ffffff" stroke="none" />
    <path d="M 301.715 749.9  C 281.849 749.9  266.24 734.291  266.24 714.425  C 266.24 694.559  281.849 678.95  301.715 678.95  C 321.581 678.95  337.19 694.559  337.19 714.425  C 337.19 734.291  321.581 749.9  301.715 749.9  " fill-rule="nonzero" fill="#cccccc" stroke="none" />
    <path d="M 45 1036  L 45 825.35  L 150.5 729.6  L 298.2 823.704296875  L 382.6 787.05  L 467 823.704296875  L 467 1036  L 45 1036  " fill-rule="nonzero" fill="#169bd5" stroke="none" />
  </g>
</svg>