﻿<?xml version="1.0" encoding="utf-8"?>
<svg version="1.1" xmlns:xlink="http://www.w3.org/1999/xlink" width="475px" height="475px" xmlns="http://www.w3.org/2000/svg">
  <g transform="matrix(1 0 0 1 -19 -1176 )">
    <path d="M 19 1176  L 494 1176  L 494 1651  L 19 1651  L 19 1176  " fill-rule="nonzero" fill="#cccccc" stroke="none" />
    <path d="M 52 1209  L 461 1209  L 461 1618  L 52 1618  L 52 1209  " fill-rule="nonzero" fill="#ffffff" stroke="none" />
    <path d="M 301.625 1318.5  C 281.675 1318.5  266 1302.825  266 1282.875  C 266 1262.925  281.675 1247.25  301.625 1247.25  C 321.575 1247.25  337.25 1262.925  337.25 1282.875  C 337.25 1302.825  321.575 1318.5  301.625 1318.5  " fill-rule="nonzero" fill="#cccccc" stroke="none" />
    <path d="M 64 1606  L 64 1394.25  L 160.25 1298  L 295 1375  L 372 1355.75  L 449 1375  L 449 1606  L 64 1606  " fill-rule="nonzero" fill="#169bd5" stroke="none" />
  </g>
</svg>