﻿<?xml version="1.0" encoding="utf-8"?>
<svg version="1.1" xmlns:xlink="http://www.w3.org/1999/xlink" width="50px" height="39px" xmlns="http://www.w3.org/2000/svg">
  <g transform="matrix(1 0 0 1 -841 -130 )">
    <path d="M 13.5044642857143 29.1392045454545  C 14.0252976190476 29.65625  14.2857142857143 30.2840909090909  14.2857142857143 31.0227272727273  L 14.2857142857143 36.3409090909091  C 14.2857142857143 37.0795454545455  14.0252976190476 37.7073863636364  13.5044642857143 38.2244318181818  C 12.983630952381 38.7414772727273  12.3511904761905 39  11.6071428571429 39  L 2.67857142857143 39  C 1.93452380952381 39  1.30208333333333 38.7414772727273  0.78125 38.2244318181818  C 0.260416666666667 37.7073863636364  0 37.0795454545455  0 36.3409090909091  L 0 31.0227272727273  C 0 30.2840909090909  0.260416666666667 29.65625  0.78125 29.1392045454545  C 1.30208333333333 28.6221590909091  1.93452380952381 28.3636363636364  2.67857142857143 28.3636363636364  L 11.6071428571429 28.3636363636364  C 12.3511904761905 28.3636363636364  12.983630952381 28.6221590909091  13.5044642857143 29.1392045454545  Z M 13.5044642857143 14.9573863636364  C 14.0252976190476 15.4744318181818  14.2857142857143 16.1022727272727  14.2857142857143 16.8409090909091  L 14.2857142857143 22.1590909090909  C 14.2857142857143 22.8977272727273  14.0252976190476 23.5255681818182  13.5044642857143 24.0426136363636  C 12.983630952381 24.5596590909091  12.3511904761905 24.8181818181818  11.6071428571429 24.8181818181818  L 2.67857142857143 24.8181818181818  C 1.93452380952381 24.8181818181818  1.30208333333333 24.5596590909091  0.78125 24.0426136363636  C 0.260416666666667 23.5255681818182  0 22.8977272727273  0 22.1590909090909  L 0 16.8409090909091  C 0 16.1022727272727  0.260416666666667 15.4744318181818  0.78125 14.9573863636364  C 1.30208333333333 14.4403409090909  1.93452380952381 14.1818181818182  2.67857142857143 14.1818181818182  L 11.6071428571429 14.1818181818182  C 12.3511904761905 14.1818181818182  12.983630952381 14.4403409090909  13.5044642857143 14.9573863636364  Z M 49.21875 29.1392045454545  C 49.7395833333333 29.65625  50 30.2840909090909  50 31.0227272727273  L 50 36.3409090909091  C 50 37.0795454545455  49.7395833333333 37.7073863636364  49.21875 38.2244318181818  C 48.6979166666667 38.7414772727273  48.0654761904762 39  47.3214285714286 39  L 20.5357142857143 39  C 19.7916666666667 39  19.1592261904762 38.7414772727273  18.6383928571429 38.2244318181818  C 18.1175595238095 37.7073863636364  17.8571428571429 37.0795454545455  17.8571428571429 36.3409090909091  L 17.8571428571429 31.0227272727273  C 17.8571428571429 30.2840909090909  18.1175595238095 29.65625  18.6383928571429 29.1392045454545  C 19.1592261904762 28.6221590909091  19.7916666666667 28.3636363636364  20.5357142857143 28  L 47.3214285714286 28  C 48.0654761904762 28.3636363636364  48.6979166666667 28.6221590909091  49.21875 29.1392045454545  Z M 13.5044642857143 0.775568181818182  C 14.0252976190476 1.29261363636363  14.2857142857143 1.92045454545454  14.2857142857143 2.65909090909091  L 14.2857142857143 7.97727272727273  C 14.2857142857143 8.71590909090909  14.0252976190476 9.34375  13.5044642857143 9.86079545454545  C 12.983630952381 10.3778409090909  12.3511904761905 10.6363636363636  11.6071428571429 10.6363636363636  L 2.67857142857143 10.6363636363636  C 1.93452380952381 10.6363636363636  1.30208333333333 10.3778409090909  0.78125 9.86079545454545  C 0.260416666666667 9.34375  0 8.71590909090909  0 7.97727272727273  L 0 2.65909090909091  C 0 1.92045454545454  0.260416666666667 1.29261363636363  0.78125 0.775568181818182  C 1.30208333333333 0.258522727272726  1.93452380952381 0  2.67857142857143 0  L 11.6071428571429 0  C 12.3511904761905 0  12.983630952381 0.258522727272726  13.5044642857143 0.775568181818182  Z M 49.21875 14.9573863636364  C 49.7395833333333 15.4744318181818  50 16.1022727272727  50 16.8409090909091  L 50 22.1590909090909  C 50 22.8977272727273  49.7395833333333 23.5255681818182  49.21875 24.0426136363636  C 48.6979166666667 24.5596590909091  48.0654761904762 24.8181818181818  47.3214285714286 24.8181818181818  L 20.5357142857143 24.8181818181818  C 19.7916666666667 24.8181818181818  19.1592261904762 24.5596590909091  18.6383928571429 24.0426136363636  C 18.1175595238095 23.5255681818182  17.8571428571429 22.8977272727273  17.8571428571429 22.1590909090909  L 17.8571428571429 16.8409090909091  C 17.8571428571429 16.1022727272727  18.1175595238095 15.4744318181818  18.6383928571429 14.9573863636364  C 19.1592261904762 14.4403409090909  19.7916666666667 14.1818181818182  20.5357142857143 14.1818181818182  L 47.3214285714286 14.1818181818182  C 48.0654761904762 14.1818181818182  48.6979166666667 14.4403409090909  49.21875 14.9573863636364  Z M 49.21875 0.775568181818182  C 49.7395833333333 1.29261363636363  50 1.92045454545454  50 2.65909090909091  L 50 7.97727272727273  C 50 8.71590909090909  49.7395833333333 9.34375  49.21875 9.86079545454545  C 48.6979166666667 10.3778409090909  48.0654761904762 10.6363636363636  47.3214285714286 11  L 20.5357142857143 11  C 19.7916666666667 10.6363636363636  19.1592261904762 10.3778409090909  18.6383928571429 9.86079545454545  C 18.1175595238095 9.34375  17.8571428571429 8.71590909090909  17.8571428571429 7.97727272727273  L 17.8571428571429 2.65909090909091  C 17.8571428571429 1.92045454545454  18.1175595238095 1.29261363636363  18.6383928571429 0.775568181818182  C 19.1592261904762 0.258522727272726  19.7916666666667 0  20.5357142857143 0  L 47.3214285714286 0  C 48.0654761904762 0  48.6979166666667 0.258522727272726  49.21875 0.775568181818182  Z " fill-rule="nonzero" fill="#000000" stroke="none" transform="matrix(1 0 0 1 841 130 )" />
  </g>
</svg>