﻿<?xml version="1.0" encoding="utf-8"?>
<svg version="1.1" xmlns:xlink="http://www.w3.org/1999/xlink" width="50px" height="42px" xmlns="http://www.w3.org/2000/svg">
  <g transform="matrix(1 0 0 1 -909 -130 )">
    <path d="M 21.9350961538462 24.0426136363636  C 22.6963141025641 24.7982954545454  23.0769230769231 25.6931818181818  23 26.7272727272727  L 23 38.1818181818182  C 23.0769230769231 39.2159090909091  22.6963141025641 40.1107954545455  21.9350961538462 40.8664772727273  C 21.1738782051282 41.6221590909091  20.2724358974359 42  19.2307692307692 42  L 3.84615384615385 42  C 2.80448717948718 42  1.90304487179487 41.6221590909091  1.14182692307692 40.8664772727273  C 0.380608974358974 40.1107954545455  0 39.2159090909091  0 38.1818181818182  L 0 26.7272727272727  C 0 25.6931818181818  0.380608974358974 24.7982954545454  1.14182692307692 24.0426136363636  C 1.90304487179487 23.2869318181818  2.80448717948718 22.9090909090909  3.84615384615385 23  L 19.2307692307692 23  C 20.2724358974359 22.9090909090909  21.1738782051282 23.2869318181818  21.9350961538462 24.0426136363636  Z M 21.9350961538462 1.13352272727273  C 22.6963141025641 1.88920454545454  23.0769230769231 2.78409090909091  23 3.81818181818182  L 23 15.2727272727273  C 23.0769230769231 16.3068181818182  22.6963141025641 17.2017045454545  21.9350961538462 17.9573863636364  C 21.1738782051282 18.7130681818182  20.2724358974359 19.0909090909091  19.2307692307692 19  L 3.84615384615385 19  C 2.80448717948718 19.0909090909091  1.90304487179487 18.7130681818182  1.14182692307692 17.9573863636364  C 0.380608974358974 17.2017045454545  0 16.3068181818182  0 15.2727272727273  L 0 3.81818181818182  C 0 2.78409090909091  0.380608974358974 1.88920454545454  1.14182692307692 1.13352272727273  C 1.90304487179487 0.377840909090906  2.80448717948718 0  3.84615384615385 0  L 19.2307692307692 0  C 20.2724358974359 0  21.1738782051282 0.377840909090906  21.9350961538462 1.13352272727273  Z M 48.8581730769231 24.0426136363636  C 49.619391025641 24.7982954545454  50 25.6931818181818  50 26.7272727272727  L 50 38.1818181818182  C 50 39.2159090909091  49.619391025641 40.1107954545455  48.8581730769231 40.8664772727273  C 48.0969551282051 41.6221590909091  47.1955128205128 42  46.1538461538462 42  L 30.7692307692308 42  C 29.7275641025641 42  28.8261217948718 41.6221590909091  28.0649038461538 40.8664772727273  C 27.3036858974359 40.1107954545455  26.9230769230769 39.2159090909091  27 38.1818181818182  L 27 26.7272727272727  C 26.9230769230769 25.6931818181818  27.3036858974359 24.7982954545454  28.0649038461538 24.0426136363636  C 28.8261217948718 23.2869318181818  29.7275641025641 22.9090909090909  30.7692307692308 23  L 46.1538461538462 23  C 47.1955128205128 22.9090909090909  48.0969551282051 23.2869318181818  48.8581730769231 24.0426136363636  Z M 48.8581730769231 1.13352272727273  C 49.619391025641 1.88920454545454  50 2.78409090909091  50 3.81818181818182  L 50 15.2727272727273  C 50 16.3068181818182  49.619391025641 17.2017045454545  48.8581730769231 17.9573863636364  C 48.0969551282051 18.7130681818182  47.1955128205128 19.0909090909091  46.1538461538462 19  L 30.7692307692308 19  C 29.7275641025641 19.0909090909091  28.8261217948718 18.7130681818182  28.0649038461538 17.9573863636364  C 27.3036858974359 17.2017045454545  26.9230769230769 16.3068181818182  27 15.2727272727273  L 27 3.81818181818182  C 26.9230769230769 2.78409090909091  27.3036858974359 1.88920454545454  28.0649038461538 1.13352272727273  C 28.8261217948718 0.377840909090906  29.7275641025641 0  30.7692307692308 0  L 46.1538461538462 0  C 47.1955128205128 0  48.0969551282051 0.377840909090906  48.8581730769231 1.13352272727273  Z " fill-rule="nonzero" fill="#000000" stroke="none" transform="matrix(1 0 0 1 909 130 )" />
  </g>
</svg>