﻿<?xml version="1.0" encoding="utf-8"?>
<svg version="1.1" xmlns:xlink="http://www.w3.org/1999/xlink" width="503px" height="380px" xmlns="http://www.w3.org/2000/svg">
  <g transform="matrix(1 0 0 1 -9 -608 )">
    <path d="M 9 608  L 512 608  L 512 988  L 9 988  L 9 608  " fill-rule="nonzero" fill="#cccccc" stroke="none" />
    <path d="M 36 635  L 485 635  L 485 961  L 36 961  L 36 635  " fill-rule="nonzero" fill="#ffffff" stroke="none" />
    <path d="M 299.06 722  C 283.1 722  270.56 709.46  270.56 693.5  C 270.56 677.54  283.1 665  299.06 665  C 315.02 665  327.56 677.54  327.56 693.5  C 327.56 709.46  315.02 722  299.06 722  " fill-rule="nonzero" fill="#cccccc" stroke="none" />
    <path d="M 46 952  L 46 783.15  L 153.5 706.4  L 304 812.842942345924  L 390 752.45  L 476 812.842942345924  L 476 952  L 46 952  " fill-rule="nonzero" fill="#169bd5" stroke="none" />
  </g>
</svg>