﻿<?xml version="1.0" encoding="utf-8"?>
<svg version="1.1" xmlns:xlink="http://www.w3.org/1999/xlink" width="295px" height="348px" xmlns="http://www.w3.org/2000/svg">
  <g transform="matrix(1 0 0 1 -46 -1701 )">
    <path d="M 46 1701  L 341 1701  L 341 2049  L 46 2049  L 46 1701  " fill-rule="nonzero" fill="#cccccc" stroke="none" />
    <path d="M 67 1722  L 320 1722  L 320 2028  L 67 2028  L 67 1722  " fill-rule="nonzero" fill="#ffffff" stroke="none" />
    <path d="M 221.525 1797.45  C 209.135 1797.45  199.4 1787.715  199.4 1775.325  C 199.4 1762.935  209.135 1753.2  221.525 1753.2  C 233.915 1753.2  243.65 1762.935  243.65 1775.325  C 243.65 1787.715  233.915 1797.45  221.525 1797.45  " fill-rule="nonzero" fill="#cccccc" stroke="none" />
    <path d="M 75 2021  L 75 1860.95  L 134.5 1788.2  L 217.8 1846.4  L 265.4 1831.85  L 313 1846.4  L 313 2021  L 75 2021  " fill-rule="nonzero" fill="#169bd5" stroke="none" />
  </g>
</svg>