﻿<?xml version="1.0" encoding="utf-8"?>
<svg version="1.1" xmlns:xlink="http://www.w3.org/1999/xlink" width="745px" height="339px" xmlns="http://www.w3.org/2000/svg">
  <g transform="matrix(1 0 0 1 -140 -675 )">
    <path d="M 140 675  L 885 675  L 885 1014  L 140 1014  L 140 675  " fill-rule="nonzero" fill="#cccccc" stroke="none" />
    <path d="M 164 699  L 861 699  L 861 990  L 164 990  L 164 699  " fill-rule="nonzero" fill="#ffffff" stroke="none" />
    <path d="M 552.825 776.7  C 538.587 776.7  527.4 765.513  527.4 751.275  C 527.4 737.037  538.587 725.85  552.825 725.85  C 567.063 725.85  578.25 737.037  578.25 751.275  C 578.25 765.513  567.063 776.7  552.825 776.7  " fill-rule="nonzero" fill="#cccccc" stroke="none" />
    <path d="M 173 982  L 173 831.3  L 343 762.8  L 581 907.192483221477  L 717 803.9  L 853 907.192483221477  L 853 982  L 173 982  " fill-rule="nonzero" fill="#169bd5" stroke="none" />
  </g>
</svg>