﻿<?xml version="1.0" encoding="utf-8"?>
<svg version="1.1" xmlns:xlink="http://www.w3.org/1999/xlink" width="465px" height="285px" xmlns="http://www.w3.org/2000/svg">
  <g transform="matrix(1 0 0 1 -47 -874 )">
    <path d="M 47 874  L 512 874  L 512 1159  L 47 1159  L 47 874  " fill-rule="nonzero" fill="#cccccc" stroke="none" />
    <path d="M 67 894  L 492 894  L 492 1139  L 67 1139  L 67 894  " fill-rule="nonzero" fill="#ffffff" stroke="none" />
    <path d="M 310.175 959.5  C 298.205 959.5  288.8 950.095  288.8 938.125  C 288.8 926.155  298.205 916.75  310.175 916.75  C 322.145 916.75  331.55 926.155  331.55 938.125  C 331.55 950.095  322.145 959.5  310.175 959.5  " fill-rule="nonzero" fill="#cccccc" stroke="none" />
    <path d="M 74 1132  L 74 1004.95  L 176.75 947.2  L 320.6 1047.05161290323  L 402.8 981.85  L 485 1047.05161290323  L 485 1132  L 74 1132  " fill-rule="nonzero" fill="#169bd5" stroke="none" />
  </g>
</svg>