﻿<?xml version="1.0" encoding="utf-8"?>
<svg version="1.1" xmlns:xlink="http://www.w3.org/1999/xlink" width="461px" height="285px" xmlns="http://www.w3.org/2000/svg">
  <g transform="matrix(1 0 0 1 -526 -1281 )">
    <path d="M 526 1281  L 987 1281  L 987 1566  L 526 1566  L 526 1281  " fill-rule="nonzero" fill="#cccccc" stroke="none" />
    <path d="M 546 1301  L 967 1301  L 967 1546  L 546 1546  L 546 1301  " fill-rule="nonzero" fill="#ffffff" stroke="none" />
    <path d="M 787.095 1366.5  C 775.125 1366.5  765.72 1357.095  765.72 1345.125  C 765.72 1333.155  775.125 1323.75  787.095 1323.75  C 799.065 1323.75  808.47 1333.155  808.47 1345.125  C 808.47 1357.095  799.065 1366.5  787.095 1366.5  " fill-rule="nonzero" fill="#cccccc" stroke="none" />
    <path d="M 553 1539  L 553 1411.95  L 654.75 1354.2  L 797.2 1453.31453362256  L 878.6 1388.85  L 960 1453.31453362256  L 960 1539  L 553 1539  " fill-rule="nonzero" fill="#169bd5" stroke="none" />
  </g>
</svg>