﻿<?xml version="1.0" encoding="utf-8"?>
<svg version="1.1" xmlns:xlink="http://www.w3.org/1999/xlink" width="271px" height="309px" xmlns="http://www.w3.org/2000/svg">
  <g transform="matrix(1 0 0 1 -72 -716 )">
    <path d="M 72 716  L 343 716  L 343 1025  L 72 1025  L 72 716  " fill-rule="nonzero" fill="#cccccc" stroke="none" />
    <path d="M 91 735  L 324 735  L 324 1006  L 91 1006  L 91 735  " fill-rule="nonzero" fill="#ffffff" stroke="none" />
    <path d="M 233.245 803  C 221.863 803  212.92 794.057  212.92 782.675  C 212.92 771.293  221.863 762.35  233.245 762.35  C 244.627 762.35  253.57 771.293  253.57 782.675  C 253.57 794.057  244.627 803  233.245 803  " fill-rule="nonzero" fill="#cccccc" stroke="none" />
    <path d="M 98 999  L 98 857.65  L 152.75 793.4  L 229.4 844.8  L 273.2 831.95  L 317 844.8  L 317 999  L 98 999  " fill-rule="nonzero" fill="#169bd5" stroke="none" />
  </g>
</svg>