﻿<?xml version="1.0" encoding="utf-8"?>
<svg version="1.1" xmlns:xlink="http://www.w3.org/1999/xlink" width="77px" height="75px" xmlns="http://www.w3.org/2000/svg">
  <g transform="matrix(1 0 0 1 -861 -131 )">
    <path d="M 899.5 131  C 921.06 131  938 147.5  938 168.5  C 938 189.5  921.06 206  899.5 206  C 877.94 206  861 189.5  861 168.5  C 861 147.5  877.94 131  899.5 131  Z " fill-rule="nonzero" fill="#f0001d" stroke="none" />
    <path d="M 899.5 131.5  C 920.78 131.5  937.5 147.78  937.5 168.5  C 937.5 189.22  920.78 205.5  899.5 205.5  C 878.22 205.5  861.5 189.22  861.5 168.5  C 861.5 147.78  878.22 131.5  899.5 131.5  Z " stroke-width="1" stroke="#797979" fill="none" />
  </g>
</svg>