﻿<?xml version="1.0" encoding="utf-8"?>
<svg version="1.1" xmlns:xlink="http://www.w3.org/1999/xlink" width="1024px" height="464px" xmlns="http://www.w3.org/2000/svg">
  <g transform="matrix(1 0 0 1 0 -2871 )">
    <path d="M 0 2871  L 1024 2871  L 1024 3335  L 0 3335  L 0 2871  " fill-rule="nonzero" fill="#cccccc" stroke="none" />
    <path d="M 32 2903  L 992 2903  L 992 3303  L 32 3303  L 32 2903  " fill-rule="nonzero" fill="#ffffff" stroke="none" />
    <path d="M 567.28 3010.2  C 547.792 3010.2  532.48 2994.888  532.48 2975.4  C 532.48 2955.912  547.792 2940.6  567.28 2940.6  C 586.768 2940.6  602.08 2955.912  602.08 2975.4  C 602.08 2994.888  586.768 3010.2  567.28 3010.2  " fill-rule="nonzero" fill="#cccccc" stroke="none" />
    <path d="M 44 3292  L 44 3084.65  L 278.25 2990.4  L 606.2 3189.503125  L 793.6 3046.95  L 981 3189.503125  L 981 3292  L 44 3292  " fill-rule="nonzero" fill="#169bd5" stroke="none" />
  </g>
</svg>