﻿<?xml version="1.0" encoding="utf-8"?>
<svg version="1.1" xmlns:xlink="http://www.w3.org/1999/xlink" width="546px" height="515px" xmlns="http://www.w3.org/2000/svg">
  <g transform="matrix(1 0 0 1 -478 -898 )">
    <path d="M 478 898  L 1024 898  L 1024 1413  L 478 1413  L 478 898  " fill-rule="nonzero" fill="#cccccc" stroke="none" />
    <path d="M 514 934  L 988 934  L 988 1377  L 514 1377  L 514 934  " fill-rule="nonzero" fill="#ffffff" stroke="none" />
    <path d="M 800.545 1052.5  C 778.915 1052.5  761.92 1035.505  761.92 1013.875  C 761.92 992.245  778.915 975.25  800.545 975.25  C 822.175 975.25  839.17 992.245  839.17 1013.875  C 839.17 1035.505  822.175 1052.5  800.545 1052.5  " fill-rule="nonzero" fill="#cccccc" stroke="none" />
    <path d="M 527 1364  L 527 1134.65  L 639 1030.4  L 795.8 1128.00549450549  L 885.4 1092.95  L 975 1128.00549450549  L 975 1364  L 527 1364  " fill-rule="nonzero" fill="#169bd5" stroke="none" />
  </g>
</svg>