﻿<?xml version="1.0" encoding="utf-8"?>
<svg version="1.1" xmlns:xlink="http://www.w3.org/1999/xlink" width="503px" height="676px" xmlns="http://www.w3.org/2000/svg">
  <g transform="matrix(1 0 0 1 -478 -131 )">
    <path d="M 478 131  L 981 131  L 981 807  L 478 807  L 478 131  " fill-rule="nonzero" fill="#cccccc" stroke="none" />
    <path d="M 513 166  L 946 166  L 946 772  L 513 772  L 513 166  " fill-rule="nonzero" fill="#ffffff" stroke="none" />
    <path d="M 777.285 307.85  C 756.159 307.85  739.56 291.251  739.56 270.125  C 739.56 248.999  756.159 232.4  777.285 232.4  C 798.411 232.4  815.01 248.999  815.01 270.125  C 815.01 291.251  798.411 307.85  777.285 307.85  " fill-rule="nonzero" fill="#cccccc" stroke="none" />
    <path d="M 526 760  L 526 440.45  L 628 295.2  L 770.8 411.4  L 852.4 382.35  L 934 411.4  L 934 760  L 526 760  " fill-rule="nonzero" fill="#169bd5" stroke="none" />
  </g>
</svg>